{
  "name": "Noto Sans",
  "size": 64,
  "bold": false,
  "italic": false,
  "width": 1024,
  "height": 512,
  "characters": {
    " ":{"x":600,"y":260,"width":3,"height":3,"originX":1,"originY":1,"advance":17},
    "_":{"x":567,"y":260,"width":33,"height":8,"originX":2,"originY":-4,"advance":28},
    "-":{"x":547,"y":260,"width":20,"height":9,"originX":0,"originY":22,"advance":21},
    ",":{"x":466,"y":260,"width":15,"height":20,"originX":0,"originY":10,"advance":17},
    ";":{"x":864,"y":170,"width":15,"height":48,"originX":0,"originY":37,"advance":17},
    ":":{"x":283,"y":220,"width":13,"height":40,"originX":-2,"originY":37,"advance":17},
    "!":{"x":941,"y":68,"width":13,"height":51,"originX":-2,"originY":48,"advance":17},
    "?":{"x":656,"y":68,"width":30,"height":52,"originX":2,"originY":49,"advance":28},
    ".":{"x":499,"y":260,"width":13,"height":14,"originX":-2,"originY":11,"advance":17},
    "'":{"x":455,"y":260,"width":11,"height":21,"originX":-2,"originY":48,"advance":14},
    "(":{"x":386,"y":0,"width":20,"height":60,"originX":0,"originY":48,"advance":19},
    ")":{"x":444,"y":0,"width":19,"height":60,"originX":0,"originY":48,"advance":19},
    "[":{"x":406,"y":0,"width":19,"height":60,"originX":-3,"originY":48,"advance":21},
    "]":{"x":425,"y":0,"width":19,"height":60,"originX":1,"originY":48,"advance":21},
    "{":{"x":335,"y":0,"width":26,"height":60,"originX":1,"originY":48,"advance":24},
    "}":{"x":361,"y":0,"width":25,"height":60,"originX":0,"originY":48,"advance":24},
    "@":{"x":496,"y":0,"width":55,"height":56,"originX":-1,"originY":48,"advance":58},
    "*":{"x":364,"y":260,"width":35,"height":33,"originX":0,"originY":51,"advance":35},
    "/":{"x":768,"y":170,"width":28,"height":50,"originX":2,"originY":48,"advance":24},
    "\"":{"x":433,"y":260,"width":22,"height":21,"originX":-2,"originY":48,"advance":26},
    "\\":{"x":740,"y":170,"width":28,"height":50,"originX":2,"originY":48,"advance":24},
    "&":{"x":113,"y":68,"width":48,"height":52,"originX":-1,"originY":49,"advance":47},
    "#":{"x":455,"y":120,"width":43,"height":50,"originX":1,"originY":48,"advance":41},
    "%":{"x":62,"y":68,"width":51,"height":52,"originX":-1,"originY":49,"advance":53},
    "`":{"x":481,"y":260,"width":18,"height":15,"originX":0,"originY":52,"advance":18},
    "^":{"x":327,"y":260,"width":37,"height":33,"originX":0,"originY":48,"advance":37},
    "+":{"x":292,"y":260,"width":35,"height":35,"originX":-1,"originY":40,"advance":37},
    "<":{"x":222,"y":260,"width":35,"height":36,"originX":-1,"originY":41,"advance":37},
    "=":{"x":399,"y":260,"width":34,"height":22,"originX":-1,"originY":34,"advance":37},
    ">":{"x":257,"y":260,"width":35,"height":36,"originX":-1,"originY":41,"advance":37},
    "|":{"x":44,"y":0,"width":9,"height":68,"originX":-13,"originY":51,"advance":35},
    "~":{"x":512,"y":260,"width":35,"height":13,"originX":-1,"originY":29,"advance":37},
    "$":{"x":463,"y":0,"width":33,"height":57,"originX":-2,"originY":51,"advance":37},
    "0":{"x":554,"y":68,"width":35,"height":52,"originX":-1,"originY":49,"advance":37},
    "1":{"x":796,"y":170,"width":22,"height":50,"originX":-3,"originY":48,"advance":37},
    "2":{"x":873,"y":68,"width":35,"height":51,"originX":-1,"originY":49,"advance":37},
    "3":{"x":589,"y":68,"width":34,"height":52,"originX":-1,"originY":49,"advance":37},
    "4":{"x":869,"y":120,"width":39,"height":50,"originX":1,"originY":48,"advance":37},
    "5":{"x":908,"y":68,"width":33,"height":51,"originX":-2,"originY":48,"advance":37},
    "6":{"x":449,"y":68,"width":35,"height":52,"originX":-1,"originY":49,"advance":37},
    "7":{"x":380,"y":170,"width":36,"height":50,"originX":0,"originY":48,"advance":37},
    "8":{"x":484,"y":68,"width":35,"height":52,"originX":-1,"originY":49,"advance":37},
    "9":{"x":519,"y":68,"width":35,"height":52,"originX":-1,"originY":49,"advance":37},
    "A":{"x":320,"y":120,"width":45,"height":50,"originX":2,"originY":48,"advance":41},
    "a":{"x":68,"y":220,"width":32,"height":40,"originX":-1,"originY":37,"advance":36},
    "B":{"x":306,"y":170,"width":37,"height":50,"originX":-4,"originY":48,"advance":42},
    "b":{"x":727,"y":0,"width":35,"height":54,"originX":-3,"originY":51,"advance":39},
    "c":{"x":194,"y":220,"width":30,"height":40,"originX":-1,"originY":37,"advance":31},
    "C":{"x":295,"y":68,"width":39,"height":52,"originX":-2,"originY":49,"advance":40},
    "d":{"x":657,"y":0,"width":35,"height":54,"originX":-1,"originY":51,"advance":39},
    "D":{"x":666,"y":120,"width":41,"height":50,"originX":-4,"originY":48,"advance":47},
    "e":{"x":0,"y":220,"width":34,"height":40,"originX":-1,"originY":37,"advance":36},
    "E":{"x":590,"y":170,"width":30,"height":50,"originX":-4,"originY":48,"advance":36},
    "F":{"x":620,"y":170,"width":30,"height":50,"originX":-4,"originY":48,"advance":33},
    "f":{"x":973,"y":0,"width":28,"height":53,"originX":1,"originY":51,"advance":22},
    "G":{"x":253,"y":68,"width":42,"height":52,"originX":-2,"originY":49,"advance":47},
    "g":{"x":692,"y":0,"width":35,"height":54,"originX":-1,"originY":37,"advance":39},
    "H":{"x":789,"y":120,"width":40,"height":50,"originX":-4,"originY":48,"advance":47},
    "h":{"x":906,"y":0,"width":34,"height":53,"originX":-3,"originY":51,"advance":40},
    "i":{"x":686,"y":68,"width":11,"height":52,"originX":-3,"originY":50,"advance":17},
    "I":{"x":818,"y":170,"width":21,"height":50,"originX":0,"originY":48,"advance":22},
    "J":{"x":314,"y":0,"width":21,"height":62,"originX":7,"originY":48,"advance":17},
    "j":{"x":53,"y":0,"width":20,"height":67,"originX":6,"originY":50,"advance":17},
    "K":{"x":117,"y":170,"width":38,"height":50,"originX":-4,"originY":48,"advance":40},
    "k":{"x":940,"y":0,"width":33,"height":53,"originX":-3,"originY":51,"advance":34},
    "l":{"x":1001,"y":0,"width":10,"height":53,"originX":-3,"originY":51,"advance":17},
    "L":{"x":650,"y":170,"width":30,"height":50,"originX":-4,"originY":48,"advance":34},
    "M":{"x":173,"y":120,"width":50,"height":50,"originX":-4,"originY":48,"advance":58},
    "m":{"x":296,"y":220,"width":54,"height":39,"originX":-3,"originY":37,"advance":60},
    "n":{"x":386,"y":220,"width":34,"height":39,"originX":-3,"originY":37,"advance":40},
    "N":{"x":707,"y":120,"width":41,"height":50,"originX":-4,"originY":48,"advance":49},
    "O":{"x":161,"y":68,"width":46,"height":52,"originX":-2,"originY":49,"advance":50},
    "o":{"x":928,"y":170,"width":37,"height":40,"originX":-1,"originY":37,"advance":39},
    "P":{"x":488,"y":170,"width":34,"height":50,"originX":-4,"originY":48,"advance":39},
    "p":{"x":622,"y":0,"width":35,"height":54,"originX":-3,"originY":37,"advance":39},
    "Q":{"x":224,"y":0,"width":46,"height":62,"originX":-2,"originY":49,"advance":50},
    "q":{"x":587,"y":0,"width":35,"height":54,"originX":-1,"originY":37,"advance":39},
    "R":{"x":269,"y":170,"width":37,"height":50,"originX":-4,"originY":48,"advance":40},
    "r":{"x":453,"y":220,"width":25,"height":39,"originX":-3,"originY":37,"advance":26},
    "s":{"x":254,"y":220,"width":29,"height":40,"originX":-1,"originY":37,"advance":31},
    "S":{"x":623,"y":68,"width":33,"height":52,"originX":-1,"originY":49,"advance":35},
    "t":{"x":839,"y":170,"width":25,"height":48,"originX":1,"originY":45,"advance":23},
    "T":{"x":908,"y":120,"width":39,"height":50,"originX":2,"originY":48,"advance":36},
    "u":{"x":420,"y":220,"width":33,"height":39,"originX":-3,"originY":36,"advance":40},
    "U":{"x":833,"y":68,"width":40,"height":51,"originX":-3,"originY":48,"advance":47},
    "V":{"x":498,"y":120,"width":43,"height":50,"originX":2,"originY":48,"advance":38},
    "v":{"x":765,"y":220,"width":37,"height":38,"originX":2,"originY":36,"advance":33},
    "w":{"x":478,"y":220,"width":54,"height":38,"originX":2,"originY":36,"advance":50},
    "W":{"x":954,"y":68,"width":63,"height":50,"originX":2,"originY":48,"advance":60},
    "X":{"x":541,"y":120,"width":42,"height":50,"originX":2,"originY":48,"advance":38},
    "x":{"x":802,"y":220,"width":36,"height":38,"originX":1,"originY":36,"advance":34},
    "Y":{"x":625,"y":120,"width":41,"height":50,"originX":2,"originY":48,"advance":36},
    "y":{"x":797,"y":0,"width":37,"height":53,"originX":2,"originY":36,"advance":33},
    "z":{"x":166,"y":260,"width":30,"height":38,"originX":0,"originY":36,"advance":30},
    "Z":{"x":416,"y":170,"width":36,"height":50,"originX":0,"originY":48,"advance":37},
    "а":{"x":100,"y":220,"width":32,"height":40,"originX":-1,"originY":37,"advance":36},
    "А":{"x":410,"y":120,"width":45,"height":50,"originX":2,"originY":48,"advance":41},
    "б":{"x":551,"y":0,"width":36,"height":54,"originX":-1,"originY":51,"advance":38},
    "Б":{"x":556,"y":170,"width":34,"height":50,"originX":-4,"originY":48,"advance":39},
    "В":{"x":343,"y":170,"width":37,"height":50,"originX":-4,"originY":48,"advance":42},
    "в":{"x":68,"y":260,"width":33,"height":38,"originX":-3,"originY":36,"advance":37},
    "г":{"x":196,"y":260,"width":26,"height":38,"originX":-3,"originY":36,"advance":28},
    "Г":{"x":710,"y":170,"width":30,"height":50,"originX":-4,"originY":48,"advance":34},
    "д":{"x":0,"y":170,"width":39,"height":50,"originX":1,"originY":36,"advance":37},
    "Д":{"x":177,"y":0,"width":47,"height":62,"originX":2,"originY":48,"advance":44},
    "е":{"x":34,"y":220,"width":34,"height":40,"originX":-1,"originY":37,"advance":36},
    "Е":{"x":680,"y":170,"width":30,"height":50,"originX":-4,"originY":48,"advance":36},
    "Ж":{"x":0,"y":120,"width":59,"height":50,"originX":2,"originY":48,"advance":55},
    "ж":{"x":532,"y":220,"width":52,"height":38,"originX":2,"originY":36,"advance":48},
    "з":{"x":132,"y":220,"width":31,"height":40,"originX":0,"originY":37,"advance":31},
    "З":{"x":412,"y":68,"width":37,"height":52,"originX":0,"originY":49,"advance":38},
    "И":{"x":748,"y":120,"width":41,"height":50,"originX":-4,"originY":48,"advance":49},
    "и":{"x":909,"y":220,"width":35,"height":38,"originX":-3,"originY":36,"advance":41},
    "Й":{"x":73,"y":0,"width":41,"height":64,"originX":-4,"originY":62,"advance":49},
    "й":{"x":871,"y":0,"width":35,"height":53,"originX":-3,"originY":51,"advance":41},
    "к":{"x":134,"y":260,"width":32,"height":38,"originX":-3,"originY":36,"advance":34},
    "К":{"x":155,"y":170,"width":38,"height":50,"originX":-4,"originY":48,"advance":40},
    "л":{"x":350,"y":220,"width":36,"height":39,"originX":2,"originY":36,"advance":37},
    "Л":{"x":790,"y":68,"width":43,"height":51,"originX":2,"originY":48,"advance":45},
    "М":{"x":223,"y":120,"width":50,"height":50,"originX":-4,"originY":48,"advance":58},
    "м":{"x":723,"y":220,"width":42,"height":38,"originX":-3,"originY":36,"advance":48},
    "Н":{"x":829,"y":120,"width":40,"height":50,"originX":-4,"originY":48,"advance":47},
    "н":{"x":874,"y":220,"width":35,"height":38,"originX":-3,"originY":36,"advance":41},
    "О":{"x":207,"y":68,"width":46,"height":52,"originX":-2,"originY":49,"advance":50},
    "о":{"x":965,"y":170,"width":37,"height":40,"originX":-1,"originY":37,"advance":39},
    "П":{"x":39,"y":170,"width":39,"height":50,"originX":-4,"originY":48,"advance":47},
    "п":{"x":944,"y":220,"width":34,"height":38,"originX":-3,"originY":36,"advance":40},
    "Р":{"x":522,"y":170,"width":34,"height":50,"originX":-4,"originY":48,"advance":39},
    "р":{"x":762,"y":0,"width":35,"height":54,"originX":-3,"originY":37,"advance":39},
    "с":{"x":224,"y":220,"width":30,"height":40,"originX":-1,"originY":37,"advance":31},
    "С":{"x":373,"y":68,"width":39,"height":52,"originX":-2,"originY":49,"advance":40},
    "т":{"x":101,"y":260,"width":33,"height":38,"originX":1,"originY":36,"advance":30},
    "Т":{"x":78,"y":170,"width":39,"height":50,"originX":2,"originY":48,"advance":36},
    "У":{"x":746,"y":68,"width":44,"height":51,"originX":2,"originY":48,"advance":40},
    "у":{"x":834,"y":0,"width":37,"height":53,"originX":2,"originY":36,"advance":33},
    "ф":{"x":0,"y":0,"width":44,"height":68,"originX":-1,"originY":51,"advance":46},
    "Ф":{"x":697,"y":68,"width":49,"height":51,"originX":-1,"originY":48,"advance":51},
    "Х":{"x":583,"y":120,"width":42,"height":50,"originX":2,"originY":48,"advance":38},
    "х":{"x":838,"y":220,"width":36,"height":38,"originX":1,"originY":36,"advance":34},
    "Ц":{"x":270,"y":0,"width":44,"height":62,"originX":-4,"originY":48,"advance":47},
    "ц":{"x":947,"y":120,"width":39,"height":50,"originX":-3,"originY":36,"advance":40},
    "ч":{"x":0,"y":260,"width":34,"height":38,"originX":-2,"originY":36,"advance":39},
    "Ч":{"x":231,"y":170,"width":38,"height":50,"originX":-3,"originY":48,"advance":45},
    "ш":{"x":584,"y":220,"width":51,"height":38,"originX":-3,"originY":36,"advance":57},
    "Ш":{"x":59,"y":120,"width":58,"height":50,"originX":-4,"originY":48,"advance":66},
    "Щ":{"x":114,"y":0,"width":63,"height":62,"originX":-4,"originY":48,"advance":67},
    "щ":{"x":117,"y":120,"width":56,"height":50,"originX":-3,"originY":36,"advance":58},
    "Ъ":{"x":365,"y":120,"width":45,"height":50,"originX":2,"originY":48,"advance":44},
    "ъ":{"x":635,"y":220,"width":44,"height":38,"originX":1,"originY":36,"advance":45},
    "Ы":{"x":273,"y":120,"width":47,"height":50,"originX":-4,"originY":48,"advance":55},
    "ы":{"x":679,"y":220,"width":44,"height":38,"originX":-3,"originY":36,"advance":50},
    "ь":{"x":34,"y":260,"width":34,"height":38,"originX":-3,"originY":36,"advance":38},
    "Ь":{"x":452,"y":170,"width":36,"height":50,"originX":-4,"originY":48,"advance":41},
    "э":{"x":163,"y":220,"width":31,"height":40,"originX":1,"originY":37,"advance":32},
    "Э":{"x":334,"y":68,"width":39,"height":52,"originX":0,"originY":49,"advance":41},
    "Ю":{"x":0,"y":68,"width":62,"height":52,"originX":-4,"originY":49,"advance":67},
    "ю":{"x":879,"y":170,"width":49,"height":40,"originX":-3,"originY":37,"advance":54},
    "Я":{"x":193,"y":170,"width":38,"height":50,"originX":1,"originY":48,"advance":41},
    "я":{"x":978,"y":220,"width":34,"height":38,"originX":1,"originY":36,"advance":36}
  }
}
